Exploring data with dplyr
…
Data: nycflights13

In order to demonstrate the basic data manipulation verbs of dplyr, we will be using the nycflights13 database. This data object contains three dataframes: flights, airlines, airports. The flights dataset contains all 336776 flights that departed from New York City in 2013. The data comes from the US Bureau of Transportation Statistics, and is documented in ?nycflights13::flights

It is worth noting that this data is already in the tidydata format. Unfortunately, going into this in detail is beyond the scope of this tutorial, but I recommend you look at the tidydata chapter in R for Data Science: https://r4ds.had.co.nz/tidy-data.html. For tools to turn a non-tidy data set into tidy data, look at the tidyr package within tidyverse. You can browse the vignettes available by running the following code: browseVignettes("tidyr")

Finally, see my plug for tidydata at the end of this document.

# make sure the nycflights13 library is loaded
library(nycflights13)
#> Warning: package 'nycflights13' was built under R version 4.0.5
dim(flights)
#> [1] 336776     19
head(flights)
#> # A tibble: 6 x 19
#>    year month   day dep_time sched_dep_time dep_delay arr_time sched_arr_time
#>   <int> <int> <int>    <int>          <int>     <dbl>    <int>          <int>
#> 1  2013     1     1      517            515         2      830            819
#> 2  2013     1     1      533            529         4      850            830
#> 3  2013     1     1      542            540         2      923            850
#> 4  2013     1     1      544            545        -1     1004           1022
#> # ... with 2 more rows, and 11 more variables: arr_delay <dbl>, carrier <chr>,
#> #   flight <int>, tailnum <chr>, origin <chr>, dest <chr>, air_time <dbl>,
#> #   distance <dbl>, hour <dbl>, minute <dbl>, time_hour <dttm>
…
Following arguments tell what to do with the data frame using un-quoted variable names.

Result is new data frame.

There are other verbs in the dplyr package, along with many useful helper functions. Browse the vignettes for dplyr: browseVignettes(package = "dplyr"), or check the Rstudio data wrangling cheat sheet https://www.rstudio.com/wp-content/uploads/2015/02/data-wrangling-cheatsheet.pdf

Filter rows with filter()

filter() allows you to select a subset of rows in a data frame. The first argument is the name of the data frame. The second and subsequent arguments are the expressions that filter the data frame:

For example, we can select all flights on July 4th with:

filter(flights, month == 7, day == 4)
#> # A tibble: 737 x 19
#>    year month   day dep_time sched_dep_time dep_delay arr_time sched_arr_time
#>   <int> <int> <int>    <int>          <int>     <dbl>    <int>          <int>
#> 1  2013     7     4       11           2359        12      400            340
#> 2  2013     7     4       59           2359        60      501            350
#> 3  2013     7     4      454            500        -6      635            640
#> 4  2013     7     4      535            536        -1      802            806
#> # ... with 733 more rows, and 11 more variables: arr_delay <dbl>,
#> #   carrier <chr>, flight <int>, tailnum <chr>, origin <chr>, dest <chr>,
#> #   air_time <dbl>, distance <dbl>, hour <dbl>, minute <dbl>, time_hour <dttm>
…
exercises

Filter out all of the flights that departed in December.

What are all of the carriers in this data set? Choose one and filter out all of the flights for that carrier.

Filter out all of the flights that did not depart on the 13th day of any month.

Arrange rows with arrange()

arrange() has a similar syntax as filter() but instead of filtering or selecting rows, it reorders them. It takes a data frame, and column name(s) to order by as arguments. The data will be arranged by the first column name provided, with ties being broken by subsequent columns:

# arrange by sched_dep_time
arrange(flights, sched_dep_time)
#> # A tibble: 336,776 x 19
#>    year month   day dep_time sched_dep_time dep_delay arr_time sched_arr_time
#>   <int> <int> <int>    <int>          <int>     <dbl>    <int>          <int>
#> 1  2013     7    27       NA            106        NA       NA            245
#> 2  2013     1     2      458            500        -2      703            650
#> 3  2013     1     3      458            500        -2      650            650
#> 4  2013     1     4      456            500        -4      631            650
#> # ... with 336,772 more rows, and 11 more variables: arr_delay <dbl>,
#> #   carrier <chr>, flight <int>, tailnum <chr>, origin <chr>, dest <chr>,
#> #   air_time <dbl>, distance <dbl>, hour <dbl>, minute <dbl>, time_hour <dttm>

# arrange by sched_dep_time, then dep_delay
arrange(flights, sched_dep_time, dep_delay)
#> # A tibble: 336,776 x 19
#>    year month   day dep_time sched_dep_time dep_delay arr_time sched_arr_time
#>   <int> <int> <int>    <int>          <int>     <dbl>    <int>          <int>
#> 1  2013     7    27       NA            106        NA       NA            245
#> 2  2013     5     8      445            500       -15      620            640
#> 3  2013     5     5      446            500       -14      636            640
#> 4  2013     9     4      446            500       -14      618            648
#> # ... with 336,772 more rows, and 11 more variables: arr_delay <dbl>,
#> #   carrier <chr>, flight <int>, tailnum <chr>, origin <chr>, dest <chr>,
#> #   air_time <dbl>, distance <dbl>, hour <dbl>, minute <dbl>, time_hour <dttm>

The default order is from smallest to largest, numeric to character, and a to z. To reverse this order, use desc() to order a column in descending order:

arrange(flights, desc(sched_dep_time))
#> # A tibble: 336,776 x 19
#>    year month   day dep_time sched_dep_time dep_delay arr_time sched_arr_time
#>   <int> <int> <int>    <int>          <int>     <dbl>    <int>          <int>
#> 1  2013     1     1     2353           2359        -6      425            445
#> 2  2013     1     1     2353           2359        -6      418            442
#> 3  2013     1     1     2356           2359        -3      425            437
#> 4  2013     1     2       42           2359        43      518            442
#> # ... with 336,772 more rows, and 11 more variables: arr_delay <dbl>,
#> #   carrier <chr>, flight <int>, tailnum <chr>, origin <chr>, dest <chr>,
#> #   air_time <dbl>, distance <dbl>, hour <dbl>, minute <dbl>, time_hour <dttm>
arrange(flights, desc(sched_dep_time), dep_delay)
#> # A tibble: 336,776 x 19
#>    year month   day dep_time sched_dep_time dep_delay arr_time sched_arr_time
#>   <int> <int> <int>    <int>          <int>     <dbl>    <int>          <int>
#> 1  2013    10     2     2341           2359       -18      324            350
#> 2  2013     9    23     2342           2359       -17      331            350
#> 3  2013    10    22     2343           2359       -16      347            350
#> 4  2013     3     4     2343           2359       -16      418            438
#> # ... with 336,772 more rows, and 11 more variables: arr_delay <dbl>,
#> #   carrier <chr>, flight <int>, tailnum <chr>, origin <chr>, dest <chr>,
#> #   air_time <dbl>, distance <dbl>, hour <dbl>, minute <dbl>, time_hour <dttm>
…
exercises

Arrange the flights in order of flight distance.

Arrange the flights in descending order of month (12 > 1), and increasing order of day (1 > 31).

Select columns with select()

Data sets generally contain numerous columns, but oftentimes you are only interested in a few for a given analysis. select() allows you to focus on a useful subset of your data while dropping un-needed columns:

# Select columns by name
select(flights, month, day, carrier)
#> # A tibble: 336,776 x 3
#>   month   day carrier
#>   <int> <int> <chr>  
#> 1     1     1 UA     
#> 2     1     1 UA     
#> 3     1     1 AA     
#> 4     1     1 B6     
#> # ... with 336,772 more rows

# Select all columns between day and arr_time (inclusive)
select(flights, day:arr_time)
#> # A tibble: 336,776 x 5
#>     day dep_time sched_dep_time dep_delay arr_time
#>   <int>    <int>          <int>     <dbl>    <int>
#> 1     1      517            515         2      830
#> 2     1      533            529         4      850
#> 3     1      542            540         2      923
#> 4     1      544            545        -1     1004
#> # ... with 336,772 more rows

# Select all columns except those from year to day (inclusive)
select(flights, -(year:day))
#> # A tibble: 336,776 x 16
#>   dep_time sched_dep_time dep_delay arr_time sched_arr_time arr_delay carrier
#>      <int>          <int>     <dbl>    <int>          <int>     <dbl> <chr>  
#> 1      517            515         2      830            819        11 UA     
#> 2      533            529         4      850            830        20 UA     
#> 3      542            540         2      923            850        33 AA     
#> 4      544            545        -1     1004           1022       -18 B6     
#> # ... with 336,772 more rows, and 9 more variables: flight <int>,
#> #   tailnum <chr>, origin <chr>, dest <chr>, air_time <dbl>, distance <dbl>,
#> #   hour <dbl>, minute <dbl>, time_hour <dttm>

This function works similarly to the select argument in base::subset(). The dplyr philosophy is to have small functions that do one thing well, so its its own function.

There are a number of helper functions you can use within select(), like starts_with(), ends_with(), matches() and contains(). These let you quickly match larger blocks of variables that meet some criterion. See ?select for more details.

The order you write the arguments in select() are retained in the output. This can be helpful if you want to quickly compare the values in two columns which do not normally appear next to each other.

select(flights, air_time, dep_time, arr_time)
#> # A tibble: 336,776 x 3
#>   air_time dep_time arr_time
#>      <dbl>    <int>    <int>
#> 1      227      517      830
#> 2      227      533      850
#> 3      160      542      923
#> 4      183      544     1004
#> # ... with 336,772 more rows
…
Select the hour and minute columns.

Select the dest, carrier, and arr_time variables, in that order.

Add new columns with mutate()

Data analysis often requires the creation of new variable columns based on values within your dataset. The mutate() function allows you to do this:

# make two new columns, "gain" and "speed"
d2 <- mutate(flights,
  gain = arr_delay - dep_delay)

# select new columns in d2, and columns used to calculate them
select(d2, gain, arr_delay, dep_delay)
#> # A tibble: 336,776 x 3
#>    gain arr_delay dep_delay
#>   <dbl>     <dbl>     <dbl>
#> 1     9        11         2
#> 2    16        20         4
#> 3    31        33         2
#> 4   -17       -18        -1
#> # ... with 336,772 more rows

dplyr::mutate() works similarly to base::transform(). The key difference between mutate() and transform() is that mutate allows you to refer to columns that youve just created:

d3 <- mutate(flights,
  # calculate "gain" column
  gain = arr_delay - dep_delay,
  # use "gain" column in next calculation
  gain_per_hour = gain / (air_time / 60)
)
select(d3, gain, gain_per_hour)
#> # A tibble: 336,776 x 2
#>    gain gain_per_hour
#>   <dbl>         <dbl>
#> 1     9          2.38
#> 2    16          4.23
#> 3    31         11.6 
#> 4   -17         -5.57
#> # ... with 336,772 more rows
…
What is the minimum and maximum flight distance?

What is the mean and standard deviation of arr_delay?

Grouped operations

These verbs are useful on their own, but when used in conjuction with the group_by() function, the awesomeness of dplyr starts to shine through. It organizes a dataset into specified groups of rows. Verbs are then applied group-by-group within the dataset. Conveniently, this is accomplished using the exact same syntax as above.

Here, we will group the data by carrier and then summarize the mean departure delay:

carrier_group <- group_by(flights, carrier)
summarize(carrier_group,
          mean_delay = mean(dep_delay, na.rm = TRUE))
#> # A tibble: 16 x 2
#>   carrier mean_delay
#>   <chr>        <dbl>
#> 1 9E           16.7 
#> 2 AA            8.59
#> 3 AS            5.80
#> 4 B6           13.0 
#> # ... with 12 more rows

The output now contains 1 row per carrier.

Just to emphasize a previous point, including functions that return 2 values in this context can be difficult to interpret:

summarize(carrier_group,
          range_delay = range(dep_delay, na.rm = TRUE),
          mean_delay = mean(dep_delay, na.rm = TRUE))
#> # A tibble: 32 x 3
#> # Groups:   carrier [16]
#>   carrier range_delay mean_delay
#>   <chr>         <dbl>      <dbl>
#> 1 9E              -24      16.7 
#> 2 9E              747      16.7 
#> 3 AA              -24       8.59
#> 4 AA             1014       8.59
#> # ... with 28 more rows
…
identical(a4, a5)
#> TRUE

It is helpful to say then when you see a %>% operator. e.g.take object flights, then group by year, month and day, then select variables arr_delay and dep_delay then 

The pipe operator in combination with dplyr allows you to quickly examine your data and explore interesting results. One of my favorite aspects of this is you can answer interesting questions almost immediately.

I wonder what the smallest arrival delay on Christmas day was, and how far the plane travelled?

flights %>% 
  filter(month == 12, day == 25) %>%
  select(dep_delay, distance) %>%
  arrange(dep_delay)
#> # A tibble: 719 x 2
#>   dep_delay distance
#>       <dbl>    <dbl>
#> 1       -23      762
#> 2       -16     1389
#> 3       -15     2402
#> 4       -15     1608
#> # ... with 715 more rows
# note that negative values indicate an early arrival

If you want to also know the destination:

flights %>% 
  filter(month == 12, day == 25) %>%
  select(dep_delay, distance, dest) %>%
  arrange(dep_delay)
#> # A tibble: 719 x 3
#>   dep_delay distance dest 
#>       <dbl>    <dbl> <chr>
#> 1       -23      762 ATL  
#> 2       -16     1389 DFW  
#> 3       -15     2402 SEA  
#> 4       -15     1608 SJU  
#> # ... with 715 more rows

What carrier has the longest flights on average?

flights %>% 
  group_by(carrier) %>%
  summarise(mean.dist = mean(distance), 
                count = n()) %>%
  arrange(desc(mean.dist))
#> # A tibble: 16 x 3
#>   carrier mean.dist count
#>   <chr>       <dbl> <int>
#> 1 HA          4983    342
#> 2 VX          2499.  5162
#> 3 AS          2402    714
#> 4 F9          1620    685
#> # ... with 12 more rows
…
What is the longest flight duration in this data set? What is the longest flight duration for each carrier?

What questions do you want to answer? Think about what you can ask with this data set, and then go step-by-step to answer the question.

Two table verbs

Oftentimes the data you need is not in only one data set. For example, the above results showing which destinations have the largest average departure delay may be interesting, but who has all the carrier and airport abbreviations memorized?

The above result would be more useful to lay persons if it had more specific information. For this we can use the two table verbs of dplyr.

The airports and airlines objects within the nycflights13 data has some useful information.

head(airlines)
#> # A tibble: 6 x 2
#>   carrier name                  
#>   <chr>   <chr>                 
#> 1 9E      Endeavor Air Inc.     
#> 2 AA      American Airlines Inc.
#> 3 AS      Alaska Airlines Inc.  
#> 4 B6      JetBlue Airways       
#> # ... with 2 more rows
head(airports)
#> # A tibble: 6 x 8
#>   faa   name                            lat   lon   alt    tz dst   tzone       
#>   <chr> <chr>                         <dbl> <dbl> <dbl> <dbl> <chr> <chr>       
#> 1 04G   Lansdowne Airport              41.1 -80.6  1044    -5 A     America/New~
#> 2 06A   Moton Field Municipal Airport  32.5 -85.7   264    -6 A     America/Chi~
#> 3 06C   Schaumburg Regional            42.0 -88.1   801    -6 A     America/Chi~
#> 4 06N   Randall Airport                41.4 -74.4   523    -5 A     America/New~
#> # ... with 2 more rows
…
flights4 <- airports %>%
  select(faa, name) %>%
  left_join(flights3, ., by = c("origin" = "faa")) %>%
  rename(origin.name = name)

Now we can re-run our example above and have more useful information. Make sure to change the variable names so youre working with our updated objects and variables.

flights4 %>%
  group_by(airline, dest.name) %>%
  select(dest.name, airline, dep_delay) %>%
  summarize(mean.delay = mean(dep_delay,na.rm = T), 
            count = n()) %>%
  arrange(airline, desc(mean.delay))
#> # A tibble: 308 x 4
#> # Groups:   airline [16]
#>   airline                     dest.name                       mean.delay count
#>   <chr>                       <chr>                                <dbl> <int>
#> 1 AirTran Airways Corporation Akron Canton Regional Airport        20.8    864
#> 2 AirTran Airways Corporation Hartsfield Jackson Atlanta Intl      18.4   2337
#> 3 AirTran Airways Corporation General Mitchell Intl                -1.71    59
#> 4 Alaska Airlines Inc.        Seattle Tacoma Intl                   5.80   714
#> # ... with 304 more rows
…
